…
### gather data in preparation for bar-charting
HealthImpact <- HealthMean %>%
  filter(HealthMean$EVTYPE %in% most_health_events) %>%
  mutate(Injuries = -proportion_injuries) %>% ### negative values will be used for 'bar-negative-stack' later
  rename(Fatalities = proportion_fatalities) %>%
  select(one_of('EVTYPE','Injuries','Fatalities')) %>%
  gather(key = 'harm', value = 'proportion', Injuries, Fatalities)

# arrange factors by fatality order
HealthImpact$EVTYPE = reorder.factor(HealthImpact$EVTYPE, new.order = arrange(HealthMean,mean_fatalities)$EVTYPE)
arrange(HealthImpact, EVTYPE)
```

```
## # A tibble: 26 x 3
##    EVTYPE    harm       proportion
##    <fct>     <chr>           <dbl>
##  1 WILDFIRE  Injuries       -2.36 
##  2 WILDFIRE  Fatalities      0.888
##  3 HURRICANE Injuries       -2.32 
##  4 HURRICANE Fatalities      0.973
##  5 FOG       Injuries       -2.38 
##  6 FOG       Fatalities      1.27 
##  7 AVALANCHE Injuries       -0.250
##  8 AVALANCHE Fatalities      2.22 
##  9 HIGH WIND Injuries       -2.10 
## 10 HIGH WIND Fatalities      3.21 
## # ... with 16 more rows
```
…
